fragment_program Compositor/Posterize_Cg_FP cg
{
	source PosterizeFP.cg
	entry_point Posterize_ps
	profiles ps_4_0 ps_2_0 arbfp1
}

fragment_program Compositor/Posterize_GLSLES_FP glsles
{
	source PosterizeFP.glsles
}

fragment_program Compositor/Posterize_GLSL_FP glsl
{
	source PosterizeFP.glsl
	syntax glsl150
}

fragment_program Compositor/PosterizeFP unified
{
	delegate Compositor/Posterize_GLSL_FP
	delegate Compositor/Posterize_GLSLES_FP
	delegate Compositor/Posterize_Cg_FP
}

material Compositor/Posterize
{
    technique
    {
		pass
		{
			cull_hardware none
			cull_software none
			depth_func always_pass
            polygon_mode_overrideable false

			vertex_program_ref Compositor/StdQuad_Tex2a_vp
			{
			}

			fragment_program_ref Compositor/PosterizeFP
			{
			}

			texture_unit RT
			{
                tex_coord_set 0
				tex_address_mode clamp
				filtering trilinear
			}

		}
	}
}
