//---------------------------------------------------------------------------
//These materials/shaders are part of the NEW InstanceManager implementation
//Written by Matias N. Goldberg ("dark_sylinc")
//---------------------------------------------------------------------------


//--------------------------------------------------------------
// GLSL Programs
//--------------------------------------------------------------
vertex_program Instancing/ShaderBased_glsl_vs glsl
{
	source ShaderInstancing.vert
	
	preprocessor_defines DEPTH_SHADOWRECEIVER=1

	includes_skeletal_animation true
}

vertex_program Instancing/shadow_caster_glsl_vs glsl
{
	source ShaderInstancing.vert
	preprocessor_defines DEPTH_SHADOWCASTER=1

	includes_skeletal_animation true
}

vertex_program Instancing/ShaderBased_dq_glsl_vs glsl
{
	source ShaderInstancing.vert

	preprocessor_defines ST_DUAL_QUATERNION,DEPTH_SHADOWRECEIVER=1

	includes_skeletal_animation true

}

vertex_program Instancing/shadow_caster_dq_glsl_vs glsl
{
	source ShaderInstancing.vert

	preprocessor_defines ST_DUAL_QUATERNION,DEPTH_SHADOWCASTER=1

	includes_skeletal_animation true
}

vertex_program Instancing/ShaderBased_dq_two_weights_glsl_vs glsl
{
	source ShaderInstancing.vert

	preprocessor_defines ST_DUAL_QUATERNION,BONE_TWO_WEIGHTS,DEPTH_SHADOWRECEIVER=1

	includes_skeletal_animation true
}

vertex_program Instancing/shadow_caster_dq_two_weights_glsl_vs glsl
{
	source ShaderInstancing.vert

	preprocessor_defines ST_DUAL_QUATERNION,BONE_TWO_WEIGHTS,DEPTH_SHADOWCASTER=1

	includes_skeletal_animation true
}

//--------------------------------------------------------------
// GLSL ES Programs
//--------------------------------------------------------------
vertex_program Instancing/ShaderBased_glsles_vs glsles
{
	source ShaderInstancing.vert
	
	preprocessor_defines DEPTH_SHADOWRECEIVER=1

	includes_skeletal_animation true
}

vertex_program Instancing/shadow_caster_glsles_vs glsles
{
	source ShaderInstancing.vert
	preprocessor_defines DEPTH_SHADOWCASTER=1

	includes_skeletal_animation true
}

vertex_program Instancing/ShaderBased_dq_glsles_vs glsles
{
	source ShaderInstancing.vert

	preprocessor_defines ST_DUAL_QUATERNION,DEPTH_SHADOWRECEIVER=1

	includes_skeletal_animation true

}

vertex_program Instancing/shadow_caster_dq_glsles_vs glsles
{
	source ShaderInstancing.vert

	preprocessor_defines ST_DUAL_QUATERNION,DEPTH_SHADOWCASTER=1

	includes_skeletal_animation true
}

vertex_program Instancing/ShaderBased_dq_two_weights_glsles_vs glsles
{
	source ShaderInstancing.vert

	preprocessor_defines ST_DUAL_QUATERNION,BONE_TWO_WEIGHTS,DEPTH_SHADOWRECEIVER=1

	includes_skeletal_animation true
}

vertex_program Instancing/shadow_caster_dq_two_weights_glsles_vs glsles
{
	source ShaderInstancing.vert

	preprocessor_defines ST_DUAL_QUATERNION,BONE_TWO_WEIGHTS,DEPTH_SHADOWCASTER=1

	includes_skeletal_animation true
}

//--------------------------------------------------------------
// CG Programs
//--------------------------------------------------------------
vertex_program Instancing/ShaderBased_cg_vs cg
{
	source ShaderInstancing.cg
	entry_point main_vs
	profiles  vs_3_0 vs_2_0 vp40

	compile_arguments -DDEPTH_SHADOWRECEIVER

	includes_skeletal_animation true
}

vertex_program Instancing/shadow_caster_cg_vs cg
{
	source ShaderInstancing.cg
	entry_point main_vs
	profiles  vs_3_0 vs_2_0 vp40
	
	compile_arguments -DDEPTH_SHADOWCASTER

	includes_skeletal_animation true
}

vertex_program Instancing/ShaderBased_dq_cg_vs cg
{
	source ShaderInstancing.cg
	entry_point main_vs
	profiles  vs_3_0 vs_2_0 vp40

	compile_arguments -DDEPTH_SHADOWRECEIVER -DST_DUAL_QUATERNION

	includes_skeletal_animation true
}

vertex_program Instancing/shadow_caster_dq_cg_vs cg
{
	source ShaderInstancing.cg
	entry_point main_vs
	profiles  vs_3_0 vs_2_0 vp40
	
	compile_arguments -DDEPTH_SHADOWCASTER -DST_DUAL_QUATERNION

	includes_skeletal_animation true
}

vertex_program Instancing/ShaderBased_dq_two_weights_cg_vs cg
{
	source ShaderInstancing.cg
	entry_point main_vs
	profiles  vs_3_0 vs_2_0 vp40

	compile_arguments -DDEPTH_SHADOWRECEIVER -DST_DUAL_QUATERNION -DBONE_TWO_WEIGHTS

	includes_skeletal_animation true
}

vertex_program Instancing/shadow_caster_dq_two_weights_cg_vs cg
{
	source ShaderInstancing.cg
	entry_point main_vs
	profiles  vs_3_0 vs_2_0 vp40
	
	compile_arguments -DDEPTH_SHADOWCASTER -DST_DUAL_QUATERNION -DBONE_TWO_WEIGHTS

	includes_skeletal_animation true
}


//--------------------------------------------------------------
// Unified CG/GLSL Programs
//--------------------------------------------------------------
vertex_program Instancing/ShaderBased_vs unified
{
	delegate Instancing/ShaderBased_glsl_vs
	delegate Instancing/ShaderBased_glsles_vs
	delegate Instancing/ShaderBased_cg_vs

	default_params
	{
		param_named_auto	viewProjMatrix				viewproj_matrix
		param_named_auto	worldMatrix3x4Array			world_matrix_array_3x4
		
		param_named_auto	depthRange					shadow_scene_depth_range 0
		param_named_auto	texViewProjMatrix			texture_viewproj_matrix 0
	}
}

vertex_program Instancing/shadow_caster_vs unified
{
	delegate Instancing/shadow_caster_glsl_vs
	delegate Instancing/shadow_caster_glsles_vs
	delegate Instancing/shadow_caster_cg_vs

	default_params
	{
		param_named_auto	viewProjMatrix				viewproj_matrix
		param_named_auto	worldMatrix3x4Array			world_matrix_array_3x4
		param_named_auto	depthRange					scene_depth_range
	}
}

vertex_program Instancing/ShaderBased_dq_vs unified
{
	delegate Instancing/ShaderBased_dq_glsl_vs
	delegate Instancing/ShaderBased_dq_glsles_vs
	delegate Instancing/ShaderBased_dq_cg_vs

	default_params
	{
		param_named_auto	viewProjMatrix				viewproj_matrix
		param_named_auto 	worldDualQuaternion2x4Array 		world_dualquaternion_array_2x4
		param_named_auto	depthRange				shadow_scene_depth_range 0
		param_named_auto	texViewProjMatrix			texture_viewproj_matrix 0
	}
}

vertex_program Instancing/shadow_caster_dq_vs unified
{
	delegate Instancing/shadow_caster_dq_glsl_vs
	delegate Instancing/shadow_caster_dq_glsles_vs
	delegate Instancing/shadow_caster_dq_cg_vs

	default_params
	{
		param_named_auto	viewProjMatrix				viewproj_matrix
		param_named_auto 	worldDualQuaternion2x4Array 		world_dualquaternion_array_2x4
		param_named_auto	depthRange				shadow_scene_depth_range 0
	}
}

vertex_program Instancing/ShaderBased_dq_two_weights_vs unified
{
	delegate Instancing/ShaderBased_dq_two_weights_glsl_vs
	delegate Instancing/ShaderBased_dq_two_weights_glsles_vs
	delegate Instancing/ShaderBased_dq_two_weights_cg_vs

	default_params
	{
		param_named_auto	viewProjMatrix				viewproj_matrix
		param_named_auto 	worldDualQuaternion2x4Array 		world_dualquaternion_array_2x4
		param_named_auto	depthRange				shadow_scene_depth_range 0
		param_named_auto	texViewProjMatrix			texture_viewproj_matrix 0
	}
}

vertex_program Instancing/shadow_caster_dq_two_weights_vs unified
{
	delegate Instancing/shadow_caster_dq_two_weights_glsl_vs
	delegate Instancing/shadow_caster_dq_two_weights_glsles_vs
	delegate Instancing/shadow_caster_dq_two_weights_cg_vs

	default_params
	{
		param_named_auto	viewProjMatrix				viewproj_matrix
		param_named_auto 	worldDualQuaternion2x4Array 		world_dualquaternion_array_2x4
		param_named_auto	depthRange				shadow_scene_depth_range 0

	}
}

material Examples/Instancing/ShaderBased/shadow_caster
{
	technique
	{
		pass
		{
			vertex_program_ref Instancing/shadow_caster_vs
			{
			}
			fragment_program_ref Instancing/shadow_caster_ps
			{
			}
		}
	}
}

material Examples/Instancing/ShaderBased/shadow_caster_dq
{
	technique
	{
		pass
		{
			vertex_program_ref Instancing/shadow_caster_dq_vs
			{
			}
			fragment_program_ref Instancing/shadow_caster_ps
			{
			}
		}
	}
}

material Examples/Instancing/ShaderBased/shadow_caster_dq_two_weights
{
	technique
	{
		pass
		{
			vertex_program_ref Instancing/shadow_caster_dq_two_weights_vs
			{
			}
			fragment_program_ref Instancing/shadow_caster_ps
			{
			}
		}
	}
}

abstract material Examples/Instancing/ShaderBased
{
	technique
	{
		shadow_caster_material Examples/Instancing/ShaderBased/shadow_caster

		pass
		{
			specular	1 1 1 1 12.5
			vertex_program_ref Instancing/ShaderBased_vs
			{
			}

			fragment_program_ref Instancing_ps
			{
			}

			texture_unit Diffuse
			{
				texture_alias		DiffuseMap
			}

			texture_unit shadow0
			{
				content_type shadow
				tex_address_mode border
				tex_border_colour 1 1 1 1
			}
		}
	}
}

material Examples/Instancing/ShaderBased/Robot : Examples/Instancing/ShaderBased
{
	set_texture_alias	DiffuseMap	r2skin.jpg
}

abstract material Examples/Instancing/ShaderBased_dq
{
	technique
	{
		shadow_caster_material Examples/Instancing/ShaderBased/shadow_caster_dq

		pass
		{
			specular	1 1 1 1 12.5
			vertex_program_ref Instancing/ShaderBased_dq_vs
			{
			}

			fragment_program_ref Instancing_ps
			{
			}

			texture_unit Diffuse
			{
				texture_alias		DiffuseMap
			}

			texture_unit shadow0
			{
				content_type shadow
				tex_address_mode border
				tex_border_colour 1 1 1 1
			}
		}
	}
}

material Examples/Instancing/ShaderBased/Robot_dq : Examples/Instancing/ShaderBased_dq
{
	set_texture_alias	DiffuseMap	r2skin.jpg
}

abstract material Examples/Instancing/ShaderBased_dq_two_weights
{
	technique
	{
		shadow_caster_material Examples/Instancing/ShaderBased/shadow_caster_dq_two_weights

		pass
		{
			diffuse		0.3 0.3 0.3
			specular	0.1 0.1 0.1 0.1 12.5
			vertex_program_ref Instancing/ShaderBased_dq_two_weights_vs
			{
			}

			fragment_program_ref Instancing_ps
			{
			}

			texture_unit Diffuse
			{
				texture_alias		DiffuseMap
				tex_address_mode	clamp
			}

			texture_unit shadow0
			{
				content_type shadow
				tex_address_mode border
				tex_border_colour 1 1 1 1
			}
		}
	}
}

material Examples/Instancing/ShaderBased/spine_dq_two_weights : Examples/Instancing/ShaderBased_dq_two_weights
{
	set_texture_alias	DiffuseMap	circuit.dds
}
